{
    "version": 2,
    "extra_config": {},
    "timeout": "3000ms",
    "cache_ttl": "300s",
    "output_encoding": "json",
    "name": "Futurama",
    "endpoints": [
      {
        "endpoint": "/cast",
        "method": "GET",
        "extra_config": {},
        "output_encoding": "no-op",
        "concurrent_calls": 1,
        "backend": [
          {
            "url_pattern": "/futurama/cast",
            "encoding": "no-op",
            "sd": "static",
            "extra_config": {},
            "method": "GET",
            "host": [
              "https://api.sampleapis.com"
            ],
            "disable_host_sanitize": false
          }
        ]
      }
    ]
  }
  
  
  